b == NULL : ft_pb
[1;34;46mpb[0ma->rp > b->rp : ft_pb
 [1;34;46mpb[0ma->rp > a->next->rp : ft_sa
 [35msa[0ma->rp > b->rp : ft_pb
 [1;34;46mpb[0ma->rp > b->rp : ft_pb
 [1;34;46mpb[0ma->rp > b->rp : ft_pb
 [1;34;46mpb[0ma->rp > a->next->rp : ft_sa
 [35msa[0ma->rp < b->rp && a->rp != env->stop : ft_ra
env->stop =3
 [1;32;40mra[0ma->rp > a->next->rp : ft_sa
 [35msa[0ma->rp < b->rp && a->rp != env->stop : ft_ra
 [1;32;40mra[0ma->rp > a->next->rp : ft_sa
 [35msa[0ma->rp < b->rp && a->rp != env->stop : ft_ra
 [1;32;40mra[0ma->rp > a->next->rp : ft_sa
 [35msa[0ma->rp < b->rp && a->rp != env->stop : ft_ra
 [1;32;40mra[0ma->rp > a->next->rp : ft_sa
 [35msa[0ma->rp < b->rp && a->rp != env->stop : ft_ra
 [1;32;40mra[0ma->rp > a->next->rp : ft_sa
 [35msa[0ma->rp < b->rp && a->rp != env->stop : ft_ra
 [1;32;40mra[0ma->rp > a->next->rp : ft_sa
 [35msa[0ma->rp < b->rp && a->rp != env->stop : ft_ra
 [1;32;40mra[0ma->rp > a->next->rp : ft_sa
 [35msa[0ma->rp > b->rp : ft_pb
 [1;34;46mpb[0ma->rp > a->next->rp : ft_sa
 [35msa[0mft_mix_ab

mix a->rp != biggest_rp : ft_ra
 [1;32;40mra[0m
mix a->rp > b->rp : ft_pb
 [1;34;46mpb[0m
mix a->rp != biggest_rp : ft_ra
 [1;33;40mrra[0m
mix a->rp != biggest_rp : ft_ra
 [1;33;40mrra[0m
mix a->rp < b->rp : ft_rb
 [1;32;43mrb[0m
mix a->rp < b->rp : ft_rb
 [1;32;43mrb[0m
mix a->rp < b->rp : ft_rb
 [1;32;43mrb[0m
mix a->rp > b->rp : ft_pb
 [1;34;46mpb[0m
mix a->rp != biggest_rp : ft_ra
 [1;33;40mrra[0m
mix a->rp != biggest_rp : ft_ra
 [1;33;40mrra[0m
mix a->rp < b->rp : ft_rb
 [1;32;43mrb[0m
mix a->rp < b->rp : ft_rb
 [1;32;43mrb[0m
mix a->rp > b->rp : ft_pb
 [1;34;46mpb[0m
mix a->rp != biggest_rp : ft_ra
 [1;32;40mra[0m
mix a->rp != biggest_rp : ft_ra
 [1;32;40mra[0m
mix a->rp < b->rp : ft_rb
 [1;32;43mrb[0m
mix a->rp > b->rp : ft_pb
 [1;34;46mpb[0m
mix a->rp != biggest_rp : ft_ra
 [1;32;40mra[0m
mix a->rp < b->rp : ft_rb
 [1;32;43mrb[0m
mix a->rp < b->rp : ft_rb
 [1;32;43mrb[0m
mix a->rp > b->rp : ft_pb
 [1;34;46mpb[0m
mix a->rp < b->rp : ft_rb
 [1;32;43mrb[0m
mix a->rp < b->rp : ft_rb
 [1;32;43mrb[0m
mix a->rp > b->rp : ft_pb
 [1;34;46mpb[0m
mix a->rp < b->rp : ft_rb
 [1;32;43mrb[0m
mix a->rp > b->rp : ft_pb
 [1;34;46mpb[0m
mix a->rp < b->rp : ft_rb
 [1;32;43mrb[0m
mix a->rp > b->rp : ft_pb
 [1;34;46mpb[0m!a

b->rp != biggest_rp : ft_rb
 [1;32;43mrb[0m
b->rp != biggest_rp : ft_rb
 [1;32;43mrb[0m
 entre deux

b != NULL : ft_pa
 [1;36mpa[0m
b != NULL : ft_pa
 [1;36mpa[0m
b != NULL : ft_pa
 [1;36mpa[0m
b != NULL : ft_pa
 [1;36mpa[0m
b != NULL : ft_pa
 [1;36mpa[0m
b != NULL : ft_pa
 [1;36mpa[0m
b != NULL : ft_pa
 [1;36mpa[0m
b != NULL : ft_pa
 [1;36mpa[0m
b != NULL : ft_pa
 [1;36mpa[0m
b != NULL : ft_pa
 [1;36mpa[0m
b != NULL : ft_pa
 [1;36mpa[0m
b != NULL : ft_pa
 [1;36mpa[0m
b != NULL : ft_pa
 [1;36mpa[0m
b != NULL : ft_pa
 [1;36mpa[0m
